{
    "fields": [
        {
            "id": "kebun"
        },
        {
            "id": "luas_lahan"
        },
        {
            "id": "created_at"
        },
        {
            "id": "updated_at"
        },
        {
            "id": "deleted_at"
        }
    ],

    "records": [
        {
            "kebun": "Sawit",
            "luas_lahan": "12345 Ha",
            "created_at": "2021-03-11T01:30:31.000000Z",
            "updated_at": "2021-03-11T03:28:03.000000Z"
        },
        {
            "kebun": "Kopi",
            "luas_lahan": "3456 Ha",
            "created_at": "2021-03-11T11:19:16.000000Z",
            "updated_at": "2021-03-11T11:19:16.000000Z"
        },
        {
            "kebun": "Lada",
            "luas_lahan": "5678 Ha",
            "created_at": "2021-03-11T11:19:34.000000Z",
            "updated_at": "2021-03-11T11:19:34.000000Z"
        },
        {
            "kebun": "Kelapa",
            "luas_lahan": "7892 Ha",
            "created_at": "2021-03-11T11:19:48.000000Z",
            "updated_at": "2021-03-11T11:19:48.000000Z"
        }
    ]
}
